{
    "university": "King Abdulaziz University",
    "college": "Faculty of Computing and Information Technology",
    "department": "Department of Computer Science",
    "name": "CPCS-381 Human-Computer Interaction",
    "course": "CPCS-381",
    "semester": "Fall 2018",
    "description": "This course is an introduction to Human-Computer Interaction (HCI), where we discuss topics and issues related to designing effective interactive technologies that bring joy to users and improve the way they work and interact with technologies. Students in this class will learn how to conduct user research and apply concepts and techniques for prototyping, designing, and evaluating user interfaces.",
    "lecture": {
        "time": "Sunday and Thursday 3:00-3:50PM",
        "location": "FCIT building, Lab 04"
    },
    "lab": {
        "time": "Monday 08:00-09:20PM",
        "location": "FCIT building, Lab 06"
    },
    "instructor": {
        "name": "Khalid Alharbi, Ph.D",
        "officeHours":"Sunday, Tuesday, Thursday 11:00AM-01:00PM",
        "officeLocation": "FCIT building, office: 112"
    },
    "slack": "#",
    "slackInviteLink": "https://join.slack.com/t/cpcs-381-fall-18/shared_invite/enQtNDI4NzgzNDc3MTQzLWYwMTYyYzQ2NjExODE1MWZlMzZiYmMxYjE1ZjNjMzA5Zjg2ZjFiNDdkMjY4YWI1YmIzZDNiYzI1ZTUxMTEyMTA",
    "github": "#"
}